[
    {
      "Sensor_Type": "NO2-B43F",
      "Board_Type": 2,
      "Gain": -0.73,
      "Sensor_Number": 202750758,
      "WE_Zero_WET": 223,
      "Aux_Zero_WET": 227,
      "WE_Sensor(nA/ppm)": -356,
      "Sensitivity": 0.26,
      "ELECTRONIC_ZERO_WEe": 237,
      "ELECTRONIC_ZERO_AEe": 231,
      "Date_of_Arrival": "6/6/2021",
      "Assigned_Dev_ID": "02bc1a6ba121b3346a058bb72f0be4b8"
    },
    {
      "Sensor_Type": "SO2-B4",
      "Board_Type": 0,
      "Gain": 0.8,
      "Sensor_Number": 164051559,
      "WE_Zero_WET": 363,
      "Aux_Zero_WET": 363,
      "WE_Sensor(nA/ppm)": 382,
      "Sensitivity": 0.306,
      "ELECTRONIC_ZERO_WEe": 340,
      "ELECTRONIC_ZERO_AEe": 336,
      "Date_of_Arrival": "6/6/2021",
      "Assigned_Dev_ID": "02bc1a6ba121b3346a058bb72f0be4b8"
    }
  ]